%YAML 1.1
%TAG !u! tag:unity3d.com,2011:
--- !u!114 &11400000
MonoBehaviour:
  m_ObjectHideFlags: 0
  m_CorrespondingSourceObject: {fileID: 0}
  m_PrefabInstance: {fileID: 0}
  m_PrefabAsset: {fileID: 0}
  m_GameObject: {fileID: 0}
  m_Enabled: 1
  m_EditorHideFlags: 0
  m_Script: {fileID: -1893448595, guid: a040fb66244a7f54289914d98ea4ef7d, type: 3}
  m_Name: NextButton
  m_EditorClassIdentifier: 
  _data:
    _json: '{"graph":{"variables":{"collection":{"$content":[],"$version":"A"},"$version":"A"},"controlInputDefinitions":[],"controlOutputDefinitions":[],"valueInputDefinitions":[],"valueOutputDefinitions":[],"title":null,"summary":null,"pan":{"x":-180.7358,"y":18.04388},"zoom":1.0,"elements":[{"coroutine":false,"defaultValues":{"target":null},"position":{"x":7.0,"y":143.0},"guid":"3797380c-914c-4508-b029-0cefba87d76c","$version":"A","$type":"Bolt.OnButtonClick","$id":"9"},{"specifyFallback":false,"kind":"Scene","defaultValues":{"name":{"$content":"UpdateCount","$type":"System.String"}},"position":{"x":-25.0,"y":418.0},"guid":"72556913-ea29-4fe2-b367-cada657f4873","$version":"A","$type":"Bolt.GetVariable","$id":"11"},{"specifyFallback":false,"kind":"Application","defaultValues":{"name":{"$content":"LastLevel","$type":"System.String"}},"position":{"x":-745.0,"y":-112.0},"guid":"c39d2319-3fe1-4de8-bb78-773d7233d5e0","$version":"A","$type":"Bolt.GetVariable","$id":"13"},{"chainable":false,"member":{"name":"text","parameterTypes":null,"targetType":"UnityEngine.UI.Text","targetTypeName":"UnityEngine.UI.Text","$version":"A"},"defaultValues":{"target":null,"input":{"$content":"","$type":"System.String"}},"position":{"x":437.0,"y":-240.0},"guid":"7e8b3a06-8396-4186-a37b-075e024061f6","$version":"A","$type":"Bolt.SetMember","$id":"15"},{"coroutine":false,"defaultValues":{},"position":{"x":-460.0,"y":-256.0},"guid":"a8197242-87ca-491f-81b8-e4c35aa70c7c","$version":"A","$type":"Bolt.Start","$id":"18"},{"kind":"Application","defaultValues":{"name":{"$content":"LevelIndex","$type":"System.String"}},"position":{"x":572.0,"y":161.0},"guid":"088146aa-220b-4a0b-93d0-798c1589db84","$version":"A","$type":"Bolt.SetVariable","$id":"20"},{"chainable":false,"member":{"name":"Find","parameterTypes":["System.String"],"targetType":"UnityEngine.GameObject","targetTypeName":"UnityEngine.GameObject","$version":"A"},"defaultValues":{"%name":{"$content":"TextN","$type":"System.String"}},"position":{"x":101.0,"y":-455.0},"guid":"037ced69-0c76-4d92-acff-cb371c60b31a","$version":"A","$type":"Bolt.InvokeMember","$id":"22"},{"defaultValues":{},"position":{"x":-242.0,"y":-238.0},"guid":"eaf297bf-ccfe-4a53-bea1-158e275f13ac","$version":"A","$type":"Bolt.Branch","$id":"25"},{"chainable":false,"member":{"name":"text","parameterTypes":null,"targetType":"UnityEngine.UI.Text","targetTypeName":"UnityEngine.UI.Text","$version":"A"},"defaultValues":{"target":null,"input":{"$content":"End","$type":"System.String"}},"position":{"x":343.0,"y":-452.0},"guid":"d716f882-841a-440b-a70c-0ef5130e7e79","$version":"A","$type":"Bolt.SetMember","$id":"27"},{"chainable":false,"member":{"name":"Find","parameterTypes":["System.String"],"targetType":"UnityEngine.GameObject","targetTypeName":"UnityEngine.GameObject","$version":"A"},"defaultValues":{"%name":{"$content":"TextN","$type":"System.String"}},"position":{"x":195.0,"y":-243.0},"guid":"4a1c5f49-bd09-457c-99a4-829b356608aa","$version":"A","$type":"Bolt.InvokeMember","$id":"30"},{"numeric":false,"defaultValues":{},"position":{"x":221.0,"y":375.0},"guid":"20ef77ce-c6f7-4df7-a4e9-daed58350512","$version":"A","$type":"Bolt.Equal","$id":"33"},{"specifyFallback":false,"kind":"Scene","defaultValues":{"name":{"$content":"EndCount","$type":"System.String"}},"position":{"x":-627.0,"y":948.0},"guid":"fcf9273d-e505-4be3-9dee-cfdbe5e3c91a","$version":"A","$type":"Bolt.GetVariable","$id":"35"},{"defaultValues":{"b":{"$content":1.0,"$type":"System.Single"}},"position":{"x":4.0,"y":264.0},"guid":"f569359b-d7bb-49d0-b394-8c7850f5a9d4","$version":"A","$type":"Bolt.ScalarAdd","$id":"37"},{"defaultValues":{},"position":{"x":395.0,"y":154.0},"guid":"1c98c6fa-8a11-4123-af87-85b2731f3afa","$version":"A","$type":"Bolt.Branch","$id":"39"},{"chainable":false,"member":{"name":"LoadScene","parameterTypes":["System.Int32"],"targetType":"UnityEngine.SceneManagement.SceneManager","targetTypeName":"UnityEngine.SceneManagement.SceneManager","$version":"A"},"defaultValues":{"%sceneBuildIndex":{"$content":0,"$type":"System.Int32"}},"position":{"x":837.0,"y":164.0},"guid":"11ae9f78-543f-46a0-a739-b0f2b6009c8c","$version":"A","$type":"Bolt.InvokeMember","$id":"41"},{"chainable":false,"member":{"name":"color","parameterTypes":null,"targetType":"UnityEngine.UI.Text","targetTypeName":"UnityEngine.UI.Text","$version":"A"},"defaultValues":{"target":null,"input":{"r":0.0,"g":1.0,"b":0.0,"a":1.0,"$type":"UnityEngine.Color"}},"position":{"x":285.0,"y":696.0},"guid":"f75b25ec-1af5-4ee1-9cd1-577ee94adf5b","$version":"A","$type":"Bolt.SetMember","$id":"44"},{"specifyFallback":false,"kind":"Application","defaultValues":{"name":{"$content":"LevelIndex","$type":"System.String"}},"position":{"x":-750.0,"y":42.0},"guid":"411dd9b7-505b-4ba0-909a-a3cc492fd6e5","$version":"A","$type":"Bolt.GetVariable","$id":"47"},{"numeric":false,"defaultValues":{},"position":{"x":-456.0,"y":-114.0},"guid":"6e43b77c-f2b9-4440-a5ae-9f563ec34bff","$version":"A","$type":"Bolt.Equal","$id":"49"},{"defaultValues":{},"position":{"x":259.0,"y":-66.0},"guid":"ecffa856-c71e-4468-b2ed-8daf9d18bff0","$version":"A","$type":"Bolt.GenericAdd","$id":"51"},{"coroutine":false,"defaultValues":{},"position":{"x":-372.0,"y":687.0},"guid":"45b16322-3561-4cad-865c-703646757385","$version":"A","$type":"Bolt.Update","$id":"53"},{"specifyFallback":false,"kind":"Scene","defaultValues":{"name":{"$content":"EndCount","$type":"System.String"}},"position":{"x":-25.0,"y":515.0},"guid":"daebe9e7-593c-477d-b18d-1ae5279b3dc3","$version":"A","$type":"Bolt.GetVariable","$id":"55"},{"defaultValues":{},"position":{"x":-145.0,"y":687.0},"guid":"72d0629e-a051-4752-903c-2a5e90c4a918","$version":"A","$type":"Bolt.Branch","$id":"57"},{"defaultValues":{"b":{"$content":1.0,"$type":"System.Single"}},"position":{"x":-277.0,"y":-26.0},"guid":"374eb839-f285-46db-bbe4-cfe0a63ba78f","$version":"A","$type":"Bolt.ScalarAdd","$id":"59"},{"numeric":false,"defaultValues":{},"position":{"x":-381.0,"y":808.0},"guid":"12af6223-9d78-4ad5-89bb-068c1cb1472e","$version":"A","$type":"Bolt.Equal","$id":"61"},{"chainable":false,"member":{"name":"Find","parameterTypes":["System.String"],"targetType":"UnityEngine.GameObject","targetTypeName":"UnityEngine.GameObject","$version":"A"},"defaultValues":{"%name":{"$content":"TextN","$type":"System.String"}},"position":{"x":47.0,"y":692.0},"guid":"81f308c3-e53d-436c-bdd4-e00d18dc9ad0","$version":"A","$type":"Bolt.InvokeMember","$id":"63"},{"specifyFallback":false,"kind":"Scene","defaultValues":{"name":{"$content":"UpdateCount","$type":"System.String"}},"position":{"x":-627.0,"y":851.0},"guid":"4014d54e-94e2-4c97-b44d-a9badd9257b0","$version":"A","$type":"Bolt.GetVariable","$id":"66"},{"type":"System.String","value":{"$content":"Level
      ","$type":"System.String"},"defaultValues":{},"position":{"x":58.0,"y":-8.0},"guid":"fa7ea933-888a-4375-975d-61759aa7791c","$version":"A","$type":"Bolt.Literal","$id":"68"},{"chainable":false,"member":{"name":"ToString","parameterTypes":[],"targetType":"System.Int32","targetTypeName":"System.Int32","$version":"A"},"defaultValues":{"target":{"$content":0,"$type":"System.Int32"}},"position":{"x":10.0,"y":-169.0},"guid":"ebba09c9-f32e-4541-be17-55367fda344e","$version":"A","$type":"Bolt.InvokeMember","$id":"70"},{"sourceUnit":{"$ref":"25"},"sourceKey":"ifTrue","destinationUnit":{"$ref":"22"},"destinationKey":"enter","guid":"fef44633-12a9-4828-bcb4-098c22ea69b6","$type":"Bolt.ControlConnection"},{"sourceUnit":{"$ref":"63"},"sourceKey":"exit","destinationUnit":{"$ref":"44"},"destinationKey":"assign","guid":"e40a0e71-81b3-4189-8ef3-091695425972","$type":"Bolt.ControlConnection"},{"sourceUnit":{"$ref":"22"},"sourceKey":"exit","destinationUnit":{"$ref":"27"},"destinationKey":"assign","guid":"2f5a97f9-6864-4d18-8e24-9d4283cd905d","$type":"Bolt.ControlConnection"},{"sourceUnit":{"$ref":"30"},"sourceKey":"exit","destinationUnit":{"$ref":"15"},"destinationKey":"assign","guid":"6488327c-10e7-4470-a03b-1db9d89b68c0","$type":"Bolt.ControlConnection"},{"sourceUnit":{"$ref":"70"},"sourceKey":"exit","destinationUnit":{"$ref":"30"},"destinationKey":"enter","guid":"acc26f81-68ad-4d45-8060-b33d34c68bc8","$type":"Bolt.ControlConnection"},{"sourceUnit":{"$ref":"25"},"sourceKey":"ifFalse","destinationUnit":{"$ref":"70"},"destinationKey":"enter","guid":"12fd12f1-3a43-4966-9109-7857680364bd","$type":"Bolt.ControlConnection"},{"sourceUnit":{"$ref":"18"},"sourceKey":"trigger","destinationUnit":{"$ref":"25"},"destinationKey":"enter","guid":"3f0a90da-d24a-48a5-89e6-60c89fad608b","$type":"Bolt.ControlConnection"},{"sourceUnit":{"$ref":"9"},"sourceKey":"trigger","destinationUnit":{"$ref":"39"},"destinationKey":"enter","guid":"9449bbc9-8c36-4e44-9e21-b88add5e7c63","$type":"Bolt.ControlConnection"},{"sourceUnit":{"$ref":"39"},"sourceKey":"ifTrue","destinationUnit":{"$ref":"20"},"destinationKey":"assign","guid":"feb256c8-fcf8-436a-bdb5-a3eb4930f080","$type":"Bolt.ControlConnection"},{"sourceUnit":{"$ref":"53"},"sourceKey":"trigger","destinationUnit":{"$ref":"57"},"destinationKey":"enter","guid":"d05dd8cb-16c0-4a4f-a1a0-de5007fb15f7","$type":"Bolt.ControlConnection"},{"sourceUnit":{"$ref":"57"},"sourceKey":"ifTrue","destinationUnit":{"$ref":"63"},"destinationKey":"enter","guid":"6b689030-72a7-4d60-a0eb-e117602bade2","$type":"Bolt.ControlConnection"},{"sourceUnit":{"$ref":"20"},"sourceKey":"assigned","destinationUnit":{"$ref":"41"},"destinationKey":"enter","guid":"aba13365-04a2-4f1e-bc0b-8a690a131343","$type":"Bolt.ControlConnection"},{"sourceUnit":{"$ref":"22"},"sourceKey":"result","destinationUnit":{"$ref":"27"},"destinationKey":"target","guid":"7dada0d7-f7d8-416d-beb5-e80d2ce980d8","$type":"Bolt.ValueConnection"},{"sourceUnit":{"$ref":"55"},"sourceKey":"value","destinationUnit":{"$ref":"33"},"destinationKey":"b","guid":"bd0a80cf-16f7-4bf8-a4fb-38bf33439235","$type":"Bolt.ValueConnection"},{"sourceUnit":{"$ref":"47"},"sourceKey":"value","destinationUnit":{"$ref":"59"},"destinationKey":"a","guid":"e428775d-7b8d-4512-a79c-4054b187532b","$type":"Bolt.ValueConnection"},{"sourceUnit":{"$ref":"63"},"sourceKey":"result","destinationUnit":{"$ref":"44"},"destinationKey":"target","guid":"657ede19-42d4-4624-8f2b-8b23a8bb249d","$type":"Bolt.ValueConnection"},{"sourceUnit":{"$ref":"47"},"sourceKey":"value","destinationUnit":{"$ref":"37"},"destinationKey":"a","guid":"8a206183-55ea-4fcb-b6c3-682fc6ab7c98","$type":"Bolt.ValueConnection"},{"sourceUnit":{"$ref":"66"},"sourceKey":"value","destinationUnit":{"$ref":"61"},"destinationKey":"a","guid":"bb62aa05-468d-45a9-b535-9dc839c82cb9","$type":"Bolt.ValueConnection"},{"sourceUnit":{"$ref":"70"},"sourceKey":"result","destinationUnit":{"$ref":"51"},"destinationKey":"b","guid":"23a623ff-292f-41d2-afb6-37b606ff455a","$type":"Bolt.ValueConnection"},{"sourceUnit":{"$ref":"49"},"sourceKey":"equal","destinationUnit":{"$ref":"25"},"destinationKey":"condition","guid":"5ef4820e-c07a-4b31-b657-a1d597f17fc5","$type":"Bolt.ValueConnection"},{"sourceUnit":{"$ref":"47"},"sourceKey":"value","destinationUnit":{"$ref":"49"},"destinationKey":"a","guid":"9707d7f7-0df5-4321-aaae-2bdd2c9cd85a","$type":"Bolt.ValueConnection"},{"sourceUnit":{"$ref":"61"},"sourceKey":"equal","destinationUnit":{"$ref":"57"},"destinationKey":"condition","guid":"97316366-fb83-46f4-9986-76cb3e45708d","$type":"Bolt.ValueConnection"},{"sourceUnit":{"$ref":"51"},"sourceKey":"sum","destinationUnit":{"$ref":"15"},"destinationKey":"input","guid":"10cc9da8-a7f8-4484-a065-f0ff1b265aa0","$type":"Bolt.ValueConnection"},{"sourceUnit":{"$ref":"13"},"sourceKey":"value","destinationUnit":{"$ref":"49"},"destinationKey":"b","guid":"259450ee-1326-44ba-9d1a-487c39ebc488","$type":"Bolt.ValueConnection"},{"sourceUnit":{"$ref":"33"},"sourceKey":"equal","destinationUnit":{"$ref":"39"},"destinationKey":"condition","guid":"d12e30a1-340e-4817-a026-2f3c8dd111f6","$type":"Bolt.ValueConnection"},{"sourceUnit":{"$ref":"11"},"sourceKey":"value","destinationUnit":{"$ref":"33"},"destinationKey":"a","guid":"5c4905cd-d3f2-44b1-9882-8e98eb3591ec","$type":"Bolt.ValueConnection"},{"sourceUnit":{"$ref":"30"},"sourceKey":"result","destinationUnit":{"$ref":"15"},"destinationKey":"target","guid":"80ce585a-d8f7-47c6-822a-f8e3e060f71c","$type":"Bolt.ValueConnection"},{"sourceUnit":{"$ref":"20"},"sourceKey":"output","destinationUnit":{"$ref":"41"},"destinationKey":"%sceneBuildIndex","guid":"8bd8d14b-fe13-4fff-b39f-f7a67e8002fb","$type":"Bolt.ValueConnection"},{"sourceUnit":{"$ref":"35"},"sourceKey":"value","destinationUnit":{"$ref":"61"},"destinationKey":"b","guid":"2c1b59d2-1aea-4564-8e66-714b657ebbd5","$type":"Bolt.ValueConnection"},{"sourceUnit":{"$ref":"68"},"sourceKey":"output","destinationUnit":{"$ref":"51"},"destinationKey":"a","guid":"791441ed-9da4-433d-9049-01414a87da52","$type":"Bolt.ValueConnection"},{"sourceUnit":{"$ref":"59"},"sourceKey":"sum","destinationUnit":{"$ref":"70"},"destinationKey":"target","guid":"5e795d72-bbc5-45cf-8427-abc86b1312da","$type":"Bolt.ValueConnection"},{"sourceUnit":{"$ref":"37"},"sourceKey":"sum","destinationUnit":{"$ref":"20"},"destinationKey":"input","guid":"f815bd55-566e-4f9e-86f2-776edf071f9e","$type":"Bolt.ValueConnection"}],"$version":"A"}}'
    _objectReferences: []
