%YAML 1.1
%TAG !u! tag:unity3d.com,2011:
--- !u!29 &1
OcclusionCullingSettings:
  m_ObjectHideFlags: 0
  serializedVersion: 2
  m_OcclusionBakeSettings:
    smallestOccluder: 5
    smallestHole: 0.25
    backfaceThreshold: 100
  m_SceneGUID: 00000000000000000000000000000000
  m_OcclusionCullingData: {fileID: 0}
--- !u!104 &2
RenderSettings:
  m_ObjectHideFlags: 0
  serializedVersion: 9
  m_Fog: 0
  m_FogColor: {r: 0.5, g: 0.5, b: 0.5, a: 1}
  m_FogMode: 3
  m_FogDensity: 0.01
  m_LinearFogStart: 0
  m_LinearFogEnd: 300
  m_AmbientSkyColor: {r: 0.212, g: 0.227, b: 0.259, a: 1}
  m_AmbientEquatorColor: {r: 0.114, g: 0.125, b: 0.133, a: 1}
  m_AmbientGroundColor: {r: 0.047, g: 0.043, b: 0.035, a: 1}
  m_AmbientIntensity: 1
  m_AmbientMode: 0
  m_SubtractiveShadowColor: {r: 0.42, g: 0.478, b: 0.627, a: 1}
  m_SkyboxMaterial: {fileID: 10304, guid: 0000000000000000f000000000000000, type: 0}
  m_HaloStrength: 0.5
  m_FlareStrength: 1
  m_FlareFadeSpeed: 3
  m_HaloTexture: {fileID: 0}
  m_SpotCookie: {fileID: 10001, guid: 0000000000000000e000000000000000, type: 0}
  m_DefaultReflectionMode: 0
  m_DefaultReflectionResolution: 128
  m_ReflectionBounces: 1
  m_ReflectionIntensity: 1
  m_CustomReflection: {fileID: 0}
  m_Sun: {fileID: 705507994}
  m_IndirectSpecularColor: {r: 0.44657898, g: 0.4964133, b: 0.5748178, a: 1}
  m_UseRadianceAmbientProbe: 0
--- !u!157 &3
LightmapSettings:
  m_ObjectHideFlags: 0
  serializedVersion: 12
  m_GIWorkflowMode: 1
  m_GISettings:
    serializedVersion: 2
    m_BounceScale: 1
    m_IndirectOutputScale: 1
    m_AlbedoBoost: 1
    m_EnvironmentLightingMode: 0
    m_EnableBakedLightmaps: 1
    m_EnableRealtimeLightmaps: 0
  m_LightmapEditorSettings:
    serializedVersion: 12
    m_Resolution: 2
    m_BakeResolution: 40
    m_AtlasSize: 1024
    m_AO: 0
    m_AOMaxDistance: 1
    m_CompAOExponent: 1
    m_CompAOExponentDirect: 0
    m_ExtractAmbientOcclusion: 0
    m_Padding: 2
    m_LightmapParameters: {fileID: 0}
    m_LightmapsBakeMode: 1
    m_TextureCompression: 1
    m_FinalGather: 0
    m_FinalGatherFiltering: 1
    m_FinalGatherRayCount: 256
    m_ReflectionCompression: 2
    m_MixedBakeMode: 2
    m_BakeBackend: 1
    m_PVRSampling: 1
    m_PVRDirectSampleCount: 32
    m_PVRSampleCount: 500
    m_PVRBounces: 2
    m_PVREnvironmentSampleCount: 500
    m_PVREnvironmentReferencePointCount: 2048
    m_PVRFilteringMode: 2
    m_PVRDenoiserTypeDirect: 0
    m_PVRDenoiserTypeIndirect: 0
    m_PVRDenoiserTypeAO: 0
    m_PVRFilterTypeDirect: 0
    m_PVRFilterTypeIndirect: 0
    m_PVRFilterTypeAO: 0
    m_PVREnvironmentMIS: 0
    m_PVRCulling: 1
    m_PVRFilteringGaussRadiusDirect: 1
    m_PVRFilteringGaussRadiusIndirect: 5
    m_PVRFilteringGaussRadiusAO: 2
    m_PVRFilteringAtrousPositionSigmaDirect: 0.5
    m_PVRFilteringAtrousPositionSigmaIndirect: 2
    m_PVRFilteringAtrousPositionSigmaAO: 1
    m_ExportTrainingData: 0
    m_TrainingDataDestination: TrainingData
    m_LightProbeSampleCountMultiplier: 4
  m_LightingDataAsset: {fileID: 0}
  m_LightingSettings: {fileID: 0}
--- !u!196 &4
NavMeshSettings:
  serializedVersion: 2
  m_ObjectHideFlags: 0
  m_BuildSettings:
    serializedVersion: 2
    agentTypeID: 0
    agentRadius: 0.25
    agentHeight: 2
    agentSlope: 45
    agentClimb: 0.4
    ledgeDropHeight: 1
    maxJumpAcrossDistance: 2
    minRegionArea: 2
    manualCellSize: 0
    cellSize: 0.083333336
    manualTileSize: 0
    tileSize: 256
    accuratePlacement: 1
    maxJobWorkers: 0
    preserveTilesOutsideBounds: 0
    debug:
      m_Flags: 0
  m_NavMeshData: {fileID: 23800000, guid: f82973b91698dbd489a989578f8897dc, type: 2}
--- !u!1 &70800640
GameObject:
  m_ObjectHideFlags: 0
  m_CorrespondingSourceObject: {fileID: 0}
  m_PrefabInstance: {fileID: 0}
  m_PrefabAsset: {fileID: 0}
  serializedVersion: 6
  m_Component:
  - component: {fileID: 70800643}
  - component: {fileID: 70800642}
  - component: {fileID: 70800641}
  m_Layer: 0
  m_Name: Scene Variables
  m_TagString: Untagged
  m_Icon: {fileID: 0}
  m_NavMeshLayer: 0
  m_StaticEditorFlags: 0
  m_IsActive: 1
--- !u!114 &70800641
MonoBehaviour:
  m_ObjectHideFlags: 0
  m_CorrespondingSourceObject: {fileID: 0}
  m_PrefabInstance: {fileID: 0}
  m_PrefabAsset: {fileID: 0}
  m_GameObject: {fileID: 70800640}
  m_Enabled: 1
  m_EditorHideFlags: 0
  m_Script: {fileID: 995777834, guid: c8d0ad23af520fe46aabe2b1fecf6462, type: 3}
  m_Name: 
  m_EditorClassIdentifier: 
--- !u!114 &70800642
MonoBehaviour:
  m_ObjectHideFlags: 0
  m_CorrespondingSourceObject: {fileID: 0}
  m_PrefabInstance: {fileID: 0}
  m_PrefabAsset: {fileID: 0}
  m_GameObject: {fileID: 70800640}
  m_Enabled: 1
  m_EditorHideFlags: 0
  m_Script: {fileID: -1465209106, guid: c8d0ad23af520fe46aabe2b1fecf6462, type: 3}
  m_Name: 
  m_EditorClassIdentifier: 
  _data:
    _json: '{"declarations":{"collection":{"$content":[{"name":"ActiveObject","value":null,"$version":"A"},{"name":"Tap","value":{"$content":false,"$type":"System.Boolean"},"$version":"A"},{"name":"Count","value":{"$content":0,"$type":"System.Int32"},"$version":"A"},{"name":"LastType","value":{"$content":0,"$type":"System.Int32"},"$version":"A"}],"$version":"A"},"$version":"A"}}'
    _objectReferences: []
--- !u!4 &70800643
Transform:
  m_ObjectHideFlags: 0
  m_CorrespondingSourceObject: {fileID: 0}
  m_PrefabInstance: {fileID: 0}
  m_PrefabAsset: {fileID: 0}
  m_GameObject: {fileID: 70800640}
  m_LocalRotation: {x: 0, y: 0, z: 0, w: 1}
  m_LocalPosition: {x: 0, y: 0, z: 0}
  m_LocalScale: {x: 1, y: 1, z: 1}
  m_Children: []
  m_Father: {fileID: 0}
  m_RootOrder: 4
  m_LocalEulerAnglesHint: {x: 0, y: 0, z: 0}
--- !u!4 &191757071 stripped
Transform:
  m_CorrespondingSourceObject: {fileID: 4903173184963024, guid: af1ac26269830d347859c2c45ef72494, type: 3}
  m_PrefabInstance: {fileID: 2033128530}
  m_PrefabAsset: {fileID: 0}
--- !u!1001 &544364933
PrefabInstance:
  m_ObjectHideFlags: 0
  serializedVersion: 2
  m_Modification:
    m_TransformParent: {fileID: 1171091323}
    m_Modifications:
    - target: {fileID: 1811686274572396, guid: af1ac26269830d347859c2c45ef72494, type: 3}
      propertyPath: m_Name
      value: GreenMarker
      objectReference: {fileID: 0}
    - target: {fileID: 1811686274572396, guid: af1ac26269830d347859c2c45ef72494, type: 3}
      propertyPath: m_Layer
      value: 8
      objectReference: {fileID: 0}
    - target: {fileID: 1811686274572396, guid: af1ac26269830d347859c2c45ef72494, type: 3}
      propertyPath: m_TagString
      value: GMarker
      objectReference: {fileID: 0}
    - target: {fileID: 1811686274572396, guid: af1ac26269830d347859c2c45ef72494, type: 3}
      propertyPath: m_StaticEditorFlags
      value: 8
      objectReference: {fileID: 0}
    - target: {fileID: 4903173184963024, guid: af1ac26269830d347859c2c45ef72494, type: 3}
      propertyPath: m_RootOrder
      value: 2
      objectReference: {fileID: 0}
    - target: {fileID: 4903173184963024, guid: af1ac26269830d347859c2c45ef72494, type: 3}
      propertyPath: m_LocalPosition.x
      value: -29.650126
      objectReference: {fileID: 0}
    - target: {fileID: 4903173184963024, guid: af1ac26269830d347859c2c45ef72494, type: 3}
      propertyPath: m_LocalPosition.y
      value: 0.3192505
      objectReference: {fileID: 0}
    - target: {fileID: 4903173184963024, guid: af1ac26269830d347859c2c45ef72494, type: 3}
      propertyPath: m_LocalPosition.z
      value: 25.834301
      objectReference: {fileID: 0}
    - target: {fileID: 4903173184963024, guid: af1ac26269830d347859c2c45ef72494, type: 3}
      propertyPath: m_LocalRotation.w
      value: 1
      objectReference: {fileID: 0}
    - target: {fileID: 4903173184963024, guid: af1ac26269830d347859c2c45ef72494, type: 3}
      propertyPath: m_LocalRotation.x
      value: -0
      objectReference: {fileID: 0}
    - target: {fileID: 4903173184963024, guid: af1ac26269830d347859c2c45ef72494, type: 3}
      propertyPath: m_LocalRotation.y
      value: -0
      objectReference: {fileID: 0}
    - target: {fileID: 4903173184963024, guid: af1ac26269830d347859c2c45ef72494, type: 3}
      propertyPath: m_LocalRotation.z
      value: -0
      objectReference: {fileID: 0}
    - target: {fileID: 4903173184963024, guid: af1ac26269830d347859c2c45ef72494, type: 3}
      propertyPath: m_LocalEulerAnglesHint.x
      value: 0
      objectReference: {fileID: 0}
    - target: {fileID: 4903173184963024, guid: af1ac26269830d347859c2c45ef72494, type: 3}
      propertyPath: m_LocalEulerAnglesHint.y
      value: 0
      objectReference: {fileID: 0}
    - target: {fileID: 4903173184963024, guid: af1ac26269830d347859c2c45ef72494, type: 3}
      propertyPath: m_LocalEulerAnglesHint.z
      value: 0
      objectReference: {fileID: 0}
    - target: {fileID: 23573647223393292, guid: af1ac26269830d347859c2c45ef72494, type: 3}
      propertyPath: m_Materials.Array.data[0]
      value: 
      objectReference: {fileID: 2100000, guid: 5c403bbf6a6b7394582f83607a3f424a, type: 2}
    m_RemovedComponents: []
  m_SourcePrefab: {fileID: 100100000, guid: af1ac26269830d347859c2c45ef72494, type: 3}
--- !u!1001 &574787367
PrefabInstance:
  m_ObjectHideFlags: 0
  serializedVersion: 2
  m_Modification:
    m_TransformParent: {fileID: 1171091323}
    m_Modifications:
    - target: {fileID: 1310734645493494, guid: 09135c03210603f42b4207ff66b56781, type: 3}
      propertyPath: m_Name
      value: House
      objectReference: {fileID: 0}
    - target: {fileID: 1310734645493494, guid: 09135c03210603f42b4207ff66b56781, type: 3}
      propertyPath: m_Layer
      value: 6
      objectReference: {fileID: 0}
    - target: {fileID: 1310734645493494, guid: 09135c03210603f42b4207ff66b56781, type: 3}
      propertyPath: m_StaticEditorFlags
      value: 8
      objectReference: {fileID: 0}
    - target: {fileID: 4230341433385666, guid: 09135c03210603f42b4207ff66b56781, type: 3}
      propertyPath: m_RootOrder
      value: 6
      objectReference: {fileID: 0}
    - target: {fileID: 4230341433385666, guid: 09135c03210603f42b4207ff66b56781, type: 3}
      propertyPath: m_LocalPosition.x
      value: 12.28
      objectReference: {fileID: 0}
    - target: {fileID: 4230341433385666, guid: 09135c03210603f42b4207ff66b56781, type: 3}
      propertyPath: m_LocalPosition.y
      value: 0.49
      objectReference: {fileID: 0}
    - target: {fileID: 4230341433385666, guid: 09135c03210603f42b4207ff66b56781, type: 3}
      propertyPath: m_LocalPosition.z
      value: -18.36
      objectReference: {fileID: 0}
    - target: {fileID: 4230341433385666, guid: 09135c03210603f42b4207ff66b56781, type: 3}
      propertyPath: m_LocalRotation.w
      value: 1
      objectReference: {fileID: 0}
    - target: {fileID: 4230341433385666, guid: 09135c03210603f42b4207ff66b56781, type: 3}
      propertyPath: m_LocalRotation.x
      value: -0
      objectReference: {fileID: 0}
    - target: {fileID: 4230341433385666, guid: 09135c03210603f42b4207ff66b56781, type: 3}
      propertyPath: m_LocalRotation.y
      value: -0
      objectReference: {fileID: 0}
    - target: {fileID: 4230341433385666, guid: 09135c03210603f42b4207ff66b56781, type: 3}
      propertyPath: m_LocalRotation.z
      value: -0
      objectReference: {fileID: 0}
    - target: {fileID: 4230341433385666, guid: 09135c03210603f42b4207ff66b56781, type: 3}
      propertyPath: m_LocalEulerAnglesHint.x
      value: 0
      objectReference: {fileID: 0}
    - target: {fileID: 4230341433385666, guid: 09135c03210603f42b4207ff66b56781, type: 3}
      propertyPath: m_LocalEulerAnglesHint.y
      value: 0
      objectReference: {fileID: 0}
    - target: {fileID: 4230341433385666, guid: 09135c03210603f42b4207ff66b56781, type: 3}
      propertyPath: m_LocalEulerAnglesHint.z
      value: 0
      objectReference: {fileID: 0}
    m_RemovedComponents: []
  m_SourcePrefab: {fileID: 100100000, guid: 09135c03210603f42b4207ff66b56781, type: 3}
--- !u!1001 &598253706
PrefabInstance:
  m_ObjectHideFlags: 0
  serializedVersion: 2
  m_Modification:
    m_TransformParent: {fileID: 1171091323}
    m_Modifications:
    - target: {fileID: 1811686274572396, guid: af1ac26269830d347859c2c45ef72494, type: 3}
      propertyPath: m_Name
      value: RedMarker
      objectReference: {fileID: 0}
    - target: {fileID: 1811686274572396, guid: af1ac26269830d347859c2c45ef72494, type: 3}
      propertyPath: m_Layer
      value: 8
      objectReference: {fileID: 0}
    - target: {fileID: 1811686274572396, guid: af1ac26269830d347859c2c45ef72494, type: 3}
      propertyPath: m_TagString
      value: RMarker
      objectReference: {fileID: 0}
    - target: {fileID: 1811686274572396, guid: af1ac26269830d347859c2c45ef72494, type: 3}
      propertyPath: m_StaticEditorFlags
      value: 8
      objectReference: {fileID: 0}
    - target: {fileID: 4903173184963024, guid: af1ac26269830d347859c2c45ef72494, type: 3}
      propertyPath: m_RootOrder
      value: 4
      objectReference: {fileID: 0}
    - target: {fileID: 4903173184963024, guid: af1ac26269830d347859c2c45ef72494, type: 3}
      propertyPath: m_LocalPosition.x
      value: 22.406
      objectReference: {fileID: 0}
    - target: {fileID: 4903173184963024, guid: af1ac26269830d347859c2c45ef72494, type: 3}
      propertyPath: m_LocalPosition.y
      value: 0.51
      objectReference: {fileID: 0}
    - target: {fileID: 4903173184963024, guid: af1ac26269830d347859c2c45ef72494, type: 3}
      propertyPath: m_LocalPosition.z
      value: -32.955
      objectReference: {fileID: 0}
    - target: {fileID: 4903173184963024, guid: af1ac26269830d347859c2c45ef72494, type: 3}
      propertyPath: m_LocalRotation.w
      value: 1
      objectReference: {fileID: 0}
    - target: {fileID: 4903173184963024, guid: af1ac26269830d347859c2c45ef72494, type: 3}
      propertyPath: m_LocalRotation.x
      value: -0
      objectReference: {fileID: 0}
    - target: {fileID: 4903173184963024, guid: af1ac26269830d347859c2c45ef72494, type: 3}
      propertyPath: m_LocalRotation.y
      value: -0
      objectReference: {fileID: 0}
    - target: {fileID: 4903173184963024, guid: af1ac26269830d347859c2c45ef72494, type: 3}
      propertyPath: m_LocalRotation.z
      value: -0
      objectReference: {fileID: 0}
    - target: {fileID: 4903173184963024, guid: af1ac26269830d347859c2c45ef72494, type: 3}
      propertyPath: m_LocalEulerAnglesHint.x
      value: 0
      objectReference: {fileID: 0}
    - target: {fileID: 4903173184963024, guid: af1ac26269830d347859c2c45ef72494, type: 3}
      propertyPath: m_LocalEulerAnglesHint.y
      value: 0
      objectReference: {fileID: 0}
    - target: {fileID: 4903173184963024, guid: af1ac26269830d347859c2c45ef72494, type: 3}
      propertyPath: m_LocalEulerAnglesHint.z
      value: 0
      objectReference: {fileID: 0}
    - target: {fileID: 23573647223393292, guid: af1ac26269830d347859c2c45ef72494, type: 3}
      propertyPath: m_Materials.Array.data[0]
      value: 
      objectReference: {fileID: 2100000, guid: 35f00c77dff8b2a47aae44c4cacb2627, type: 2}
    m_RemovedComponents: []
  m_SourcePrefab: {fileID: 100100000, guid: af1ac26269830d347859c2c45ef72494, type: 3}
--- !u!1 &705507993
GameObject:
  m_ObjectHideFlags: 0
  m_CorrespondingSourceObject: {fileID: 0}
  m_PrefabInstance: {fileID: 0}
  m_PrefabAsset: {fileID: 0}
  serializedVersion: 6
  m_Component:
  - component: {fileID: 705507995}
  - component: {fileID: 705507994}
  m_Layer: 0
  m_Name: Directional Light
  m_TagString: Untagged
  m_Icon: {fileID: 0}
  m_NavMeshLayer: 0
  m_StaticEditorFlags: 0
  m_IsActive: 1
--- !u!108 &705507994
Light:
  m_ObjectHideFlags: 0
  m_CorrespondingSourceObject: {fileID: 0}
  m_PrefabInstance: {fileID: 0}
  m_PrefabAsset: {fileID: 0}
  m_GameObject: {fileID: 705507993}
  m_Enabled: 1
  serializedVersion: 10
  m_Type: 1
  m_Shape: 0
  m_Color: {r: 1, g: 0.95686275, b: 0.8392157, a: 1}
  m_Intensity: 1
  m_Range: 10
  m_SpotAngle: 30
  m_InnerSpotAngle: 21.80208
  m_CookieSize: 10
  m_Shadows:
    m_Type: 1
    m_Resolution: -1
    m_CustomResolution: -1
    m_Strength: 1
    m_Bias: 0.05
    m_NormalBias: 0.4
    m_NearPlane: 0.2
    m_CullingMatrixOverride:
      e00: 1
      e01: 0
      e02: 0
      e03: 0
      e10: 0
      e11: 1
      e12: 0
      e13: 0
      e20: 0
      e21: 0
      e22: 1
      e23: 0
      e30: 0
      e31: 0
      e32: 0
      e33: 1
    m_UseCullingMatrixOverride: 0
  m_Cookie: {fileID: 0}
  m_DrawHalo: 0
  m_Flare: {fileID: 0}
  m_RenderMode: 0
  m_CullingMask:
    serializedVersion: 2
    m_Bits: 4294967295
  m_RenderingLayerMask: 1
  m_Lightmapping: 1
  m_LightShadowCasterMode: 0
  m_AreaSize: {x: 1, y: 1}
  m_BounceIntensity: 1
  m_ColorTemperature: 6570
  m_UseColorTemperature: 0
  m_BoundingSphereOverride: {x: 0, y: 0, z: 0, w: 0}
  m_UseBoundingSphereOverride: 0
  m_UseViewFrustumForShadowCasterCull: 1
  m_ShadowRadius: 0
  m_ShadowAngle: 0
--- !u!4 &705507995
Transform:
  m_ObjectHideFlags: 0
  m_CorrespondingSourceObject: {fileID: 0}
  m_PrefabInstance: {fileID: 0}
  m_PrefabAsset: {fileID: 0}
  m_GameObject: {fileID: 705507993}
  m_LocalRotation: {x: 0.40821788, y: -0.23456968, z: 0.10938163, w: 0.8754261}
  m_LocalPosition: {x: 0, y: 3, z: 0}
  m_LocalScale: {x: 1, y: 1, z: 1}
  m_Children: []
  m_Father: {fileID: 0}
  m_RootOrder: 2
  m_LocalEulerAnglesHint: {x: 50, y: -30, z: 0}
--- !u!1 &963194225
GameObject:
  m_ObjectHideFlags: 0
  m_CorrespondingSourceObject: {fileID: 0}
  m_PrefabInstance: {fileID: 0}
  m_PrefabAsset: {fileID: 0}
  serializedVersion: 6
  m_Component:
  - component: {fileID: 963194228}
  - component: {fileID: 963194227}
  - component: {fileID: 963194226}
  - component: {fileID: 963194230}
  - component: {fileID: 963194229}
  - component: {fileID: 963194231}
  - component: {fileID: 963194232}
  m_Layer: 0
  m_Name: Main Camera
  m_TagString: MainCamera
  m_Icon: {fileID: 0}
  m_NavMeshLayer: 0
  m_StaticEditorFlags: 0
  m_IsActive: 1
--- !u!81 &963194226
AudioListener:
  m_ObjectHideFlags: 0
  m_CorrespondingSourceObject: {fileID: 0}
  m_PrefabInstance: {fileID: 0}
  m_PrefabAsset: {fileID: 0}
  m_GameObject: {fileID: 963194225}
  m_Enabled: 1
--- !u!20 &963194227
Camera:
  m_ObjectHideFlags: 0
  m_CorrespondingSourceObject: {fileID: 0}
  m_PrefabInstance: {fileID: 0}
  m_PrefabAsset: {fileID: 0}
  m_GameObject: {fileID: 963194225}
  m_Enabled: 1
  serializedVersion: 2
  m_ClearFlags: 1
  m_BackGroundColor: {r: 0.19215687, g: 0.3019608, b: 0.4745098, a: 0}
  m_projectionMatrixMode: 1
  m_GateFitMode: 2
  m_FOVAxisMode: 0
  m_SensorSize: {x: 36, y: 24}
  m_LensShift: {x: 0, y: 0}
  m_FocalLength: 50
  m_NormalizedViewPortRect:
    serializedVersion: 2
    x: 0
    y: 0
    width: 1
    height: 1
  near clip plane: -30
  far clip plane: 2000
  field of view: 60
  orthographic: 1
  orthographic size: 5
  m_Depth: -1
  m_CullingMask:
    serializedVersion: 2
    m_Bits: 4294967295
  m_RenderingPath: -1
  m_TargetTexture: {fileID: 0}
  m_TargetDisplay: 0
  m_TargetEye: 3
  m_HDR: 1
  m_AllowMSAA: 1
  m_AllowDynamicResolution: 0
  m_ForceIntoRT: 0
  m_OcclusionCulling: 1
  m_StereoConvergence: 10
  m_StereoSeparation: 0.022
--- !u!4 &963194228
Transform:
  m_ObjectHideFlags: 0
  m_CorrespondingSourceObject: {fileID: 0}
  m_PrefabInstance: {fileID: 0}
  m_PrefabAsset: {fileID: 0}
  m_GameObject: {fileID: 963194225}
  m_LocalRotation: {x: 0.5, y: 0, z: 0, w: 0.8660254}
  m_LocalPosition: {x: 0.5, y: 8.59, z: -2.75}
  m_LocalScale: {x: 1, y: 1, z: 1}
  m_Children: []
  m_Father: {fileID: 0}
  m_RootOrder: 0
  m_LocalEulerAnglesHint: {x: 60, y: 0, z: 0}
--- !u!114 &963194229
MonoBehaviour:
  m_ObjectHideFlags: 0
  m_CorrespondingSourceObject: {fileID: 0}
  m_PrefabInstance: {fileID: 0}
  m_PrefabAsset: {fileID: 0}
  m_GameObject: {fileID: 963194225}
  m_Enabled: 1
  m_EditorHideFlags: 0
  m_Script: {fileID: -57143145, guid: a040fb66244a7f54289914d98ea4ef7d, type: 3}
  m_Name: 
  m_EditorClassIdentifier: 
  _data:
    _json: '{"nest":{"source":"Macro","macro":0,"embed":null}}'
    _objectReferences:
    - {fileID: 11400000, guid: 401264059ff90424f8c04aeb67ee5cf6, type: 2}
--- !u!114 &963194230
MonoBehaviour:
  m_ObjectHideFlags: 0
  m_CorrespondingSourceObject: {fileID: 0}
  m_PrefabInstance: {fileID: 0}
  m_PrefabAsset: {fileID: 0}
  m_GameObject: {fileID: 963194225}
  m_Enabled: 1
  m_EditorHideFlags: 0
  m_Script: {fileID: -1465209106, guid: c8d0ad23af520fe46aabe2b1fecf6462, type: 3}
  m_Name: 
  m_EditorClassIdentifier: 
  _data:
    _json: '{"declarations":{"collection":{"$content":[{"name":"NPC","value":{"$content":0,"$type":"UnityEngine.Object"},"$version":"A"}],"$version":"A"},"$version":"A"}}'
    _objectReferences:
    - {fileID: 0}
--- !u!114 &963194231
MonoBehaviour:
  m_ObjectHideFlags: 0
  m_CorrespondingSourceObject: {fileID: 0}
  m_PrefabInstance: {fileID: 0}
  m_PrefabAsset: {fileID: 0}
  m_GameObject: {fileID: 963194225}
  m_Enabled: 1
  m_EditorHideFlags: 0
  m_Script: {fileID: -57143145, guid: a040fb66244a7f54289914d98ea4ef7d, type: 3}
  m_Name: 
  m_EditorClassIdentifier: 
  _data:
    _json: '{"nest":{"source":"Macro","macro":0,"embed":null}}'
    _objectReferences:
    - {fileID: 11400000, guid: 0a736b1bfe1757a489acd357b9dfd4f1, type: 2}
--- !u!114 &963194232
MonoBehaviour:
  m_ObjectHideFlags: 0
  m_CorrespondingSourceObject: {fileID: 0}
  m_PrefabInstance: {fileID: 0}
  m_PrefabAsset: {fileID: 0}
  m_GameObject: {fileID: 963194225}
  m_Enabled: 1
  m_EditorHideFlags: 0
  m_Script: {fileID: 11500000, guid: a79441f348de89743a2939f4d699eac1, type: 3}
  m_Name: 
  m_EditorClassIdentifier: 
  m_RenderShadows: 1
  m_RequiresDepthTextureOption: 2
  m_RequiresOpaqueTextureOption: 2
  m_CameraType: 0
  m_Cameras: []
  m_RendererIndex: -1
  m_VolumeLayerMask:
    serializedVersion: 2
    m_Bits: 1
  m_VolumeTrigger: {fileID: 0}
  m_RenderPostProcessing: 0
  m_Antialiasing: 0
  m_AntialiasingQuality: 2
  m_StopNaN: 0
  m_Dithering: 0
  m_ClearDepth: 1
  m_AllowXRRendering: 1
  m_RequiresDepthTexture: 0
  m_RequiresColorTexture: 0
  m_Version: 2
--- !u!1001 &1046047900
PrefabInstance:
  m_ObjectHideFlags: 0
  serializedVersion: 2
  m_Modification:
    m_TransformParent: {fileID: 0}
    m_Modifications:
    - target: {fileID: 8729150506442336761, guid: f7b8a56d222366c4c9d4bb9220defdad, type: 3}
      propertyPath: m_Name
      value: NPC
      objectReference: {fileID: 0}
    - target: {fileID: 8732927438474743161, guid: f7b8a56d222366c4c9d4bb9220defdad, type: 3}
      propertyPath: m_RootOrder
      value: 1
      objectReference: {fileID: 0}
    - target: {fileID: 8732927438474743161, guid: f7b8a56d222366c4c9d4bb9220defdad, type: 3}
      propertyPath: m_LocalPosition.x
      value: -2.1275897
      objectReference: {fileID: 0}
    - target: {fileID: 8732927438474743161, guid: f7b8a56d222366c4c9d4bb9220defdad, type: 3}
      propertyPath: m_LocalPosition.y
      value: 0.2802167
      objectReference: {fileID: 0}
    - target: {fileID: 8732927438474743161, guid: f7b8a56d222366c4c9d4bb9220defdad, type: 3}
      propertyPath: m_LocalPosition.z
      value: 1.1571697
      objectReference: {fileID: 0}
    - target: {fileID: 8732927438474743161, guid: f7b8a56d222366c4c9d4bb9220defdad, type: 3}
      propertyPath: m_LocalRotation.w
      value: 1
      objectReference: {fileID: 0}
    - target: {fileID: 8732927438474743161, guid: f7b8a56d222366c4c9d4bb9220defdad, type: 3}
      propertyPath: m_LocalRotation.x
      value: 0
      objectReference: {fileID: 0}
    - target: {fileID: 8732927438474743161, guid: f7b8a56d222366c4c9d4bb9220defdad, type: 3}
      propertyPath: m_LocalRotation.y
      value: 0
      objectReference: {fileID: 0}
    - target: {fileID: 8732927438474743161, guid: f7b8a56d222366c4c9d4bb9220defdad, type: 3}
      propertyPath: m_LocalRotation.z
      value: 0
      objectReference: {fileID: 0}
    - target: {fileID: 8732927438474743161, guid: f7b8a56d222366c4c9d4bb9220defdad, type: 3}
      propertyPath: m_LocalEulerAnglesHint.x
      value: 0
      objectReference: {fileID: 0}
    - target: {fileID: 8732927438474743161, guid: f7b8a56d222366c4c9d4bb9220defdad, type: 3}
      propertyPath: m_LocalEulerAnglesHint.y
      value: 0
      objectReference: {fileID: 0}
    - target: {fileID: 8732927438474743161, guid: f7b8a56d222366c4c9d4bb9220defdad, type: 3}
      propertyPath: m_LocalEulerAnglesHint.z
      value: 0
      objectReference: {fileID: 0}
    m_RemovedComponents: []
  m_SourcePrefab: {fileID: 100100000, guid: f7b8a56d222366c4c9d4bb9220defdad, type: 3}
--- !u!1 &1165670930 stripped
GameObject:
  m_CorrespondingSourceObject: {fileID: 1016621507197270, guid: e484c7ad7b1274b4c847940d3eb54d14, type: 3}
  m_PrefabInstance: {fileID: 1712646858}
  m_PrefabAsset: {fileID: 0}
--- !u!114 &1165670935
MonoBehaviour:
  m_ObjectHideFlags: 0
  m_CorrespondingSourceObject: {fileID: 0}
  m_PrefabInstance: {fileID: 0}
  m_PrefabAsset: {fileID: 0}
  m_GameObject: {fileID: 1165670930}
  m_Enabled: 1
  m_EditorHideFlags: 0
  m_Script: {fileID: -1465209106, guid: c8d0ad23af520fe46aabe2b1fecf6462, type: 3}
  m_Name: 
  m_EditorClassIdentifier: 
  _data:
    _json: '{"declarations":{"collection":{"$content":[],"$version":"A"},"$version":"A"}}'
    _objectReferences: []
--- !u!1 &1171091322
GameObject:
  m_ObjectHideFlags: 0
  m_CorrespondingSourceObject: {fileID: 0}
  m_PrefabInstance: {fileID: 0}
  m_PrefabAsset: {fileID: 0}
  serializedVersion: 6
  m_Component:
  - component: {fileID: 1171091323}
  - component: {fileID: 1171091325}
  m_Layer: 6
  m_Name: Level
  m_TagString: Untagged
  m_Icon: {fileID: 0}
  m_NavMeshLayer: 0
  m_StaticEditorFlags: 8
  m_IsActive: 1
--- !u!4 &1171091323
Transform:
  m_ObjectHideFlags: 0
  m_CorrespondingSourceObject: {fileID: 0}
  m_PrefabInstance: {fileID: 0}
  m_PrefabAsset: {fileID: 0}
  m_GameObject: {fileID: 1171091322}
  m_LocalRotation: {x: 0, y: 0, z: 0, w: 1}
  m_LocalPosition: {x: 0, y: 0, z: 0}
  m_LocalScale: {x: 1, y: 1, z: 1}
  m_Children:
  - {fileID: 1942649731}
  - {fileID: 1712646859}
  - {fileID: 1467120294}
  - {fileID: 191757071}
  - {fileID: 1736542205}
  - {fileID: 1384293583}
  - {fileID: 1717135238}
  m_Father: {fileID: 0}
  m_RootOrder: 3
  m_LocalEulerAnglesHint: {x: 0, y: 0, z: 0}
--- !u!114 &1171091325
MonoBehaviour:
  m_ObjectHideFlags: 0
  m_CorrespondingSourceObject: {fileID: 0}
  m_PrefabInstance: {fileID: 0}
  m_PrefabAsset: {fileID: 0}
  m_GameObject: {fileID: 1171091322}
  m_Enabled: 1
  m_EditorHideFlags: 0
  m_Script: {fileID: -1465209106, guid: c8d0ad23af520fe46aabe2b1fecf6462, type: 3}
  m_Name: 
  m_EditorClassIdentifier: 
  _data:
    _json: '{"declarations":{"collection":{"$content":[],"$version":"A"},"$version":"A"}}'
    _objectReferences: []
--- !u!1001 &1177614400
PrefabInstance:
  m_ObjectHideFlags: 0
  serializedVersion: 2
  m_Modification:
    m_TransformParent: {fileID: 1171091323}
    m_Modifications:
    - target: {fileID: 1978775886026106, guid: bbc12ae2f967ec04e8c3c39eeb92733b, type: 3}
      propertyPath: m_Name
      value: Block
      objectReference: {fileID: 0}
    - target: {fileID: 1978775886026106, guid: bbc12ae2f967ec04e8c3c39eeb92733b, type: 3}
      propertyPath: m_Layer
      value: 6
      objectReference: {fileID: 0}
    - target: {fileID: 1978775886026106, guid: bbc12ae2f967ec04e8c3c39eeb92733b, type: 3}
      propertyPath: m_NavMeshLayer
      value: 0
      objectReference: {fileID: 0}
    - target: {fileID: 1978775886026106, guid: bbc12ae2f967ec04e8c3c39eeb92733b, type: 3}
      propertyPath: m_StaticEditorFlags
      value: 8
      objectReference: {fileID: 0}
    - target: {fileID: 4962039562683002, guid: bbc12ae2f967ec04e8c3c39eeb92733b, type: 3}
      propertyPath: m_RootOrder
      value: 5
      objectReference: {fileID: 0}
    - target: {fileID: 4962039562683002, guid: bbc12ae2f967ec04e8c3c39eeb92733b, type: 3}
      propertyPath: m_LocalScale.x
      value: 2
      objectReference: {fileID: 0}
    - target: {fileID: 4962039562683002, guid: bbc12ae2f967ec04e8c3c39eeb92733b, type: 3}
      propertyPath: m_LocalScale.y
      value: 2
      objectReference: {fileID: 0}
    - target: {fileID: 4962039562683002, guid: bbc12ae2f967ec04e8c3c39eeb92733b, type: 3}
      propertyPath: m_LocalScale.z
      value: 2
      objectReference: {fileID: 0}
    - target: {fileID: 4962039562683002, guid: bbc12ae2f967ec04e8c3c39eeb92733b, type: 3}
      propertyPath: m_LocalPosition.x
      value: 21.88
      objectReference: {fileID: 0}
    - target: {fileID: 4962039562683002, guid: bbc12ae2f967ec04e8c3c39eeb92733b, type: 3}
      propertyPath: m_LocalPosition.y
      value: -1.5580002
      objectReference: {fileID: 0}
    - target: {fileID: 4962039562683002, guid: bbc12ae2f967ec04e8c3c39eeb92733b, type: 3}
      propertyPath: m_LocalPosition.z
      value: -33.48
      objectReference: {fileID: 0}
    - target: {fileID: 4962039562683002, guid: bbc12ae2f967ec04e8c3c39eeb92733b, type: 3}
      propertyPath: m_LocalRotation.w
      value: 1
      objectReference: {fileID: 0}
    - target: {fileID: 4962039562683002, guid: bbc12ae2f967ec04e8c3c39eeb92733b, type: 3}
      propertyPath: m_LocalRotation.x
      value: -0
      objectReference: {fileID: 0}
    - target: {fileID: 4962039562683002, guid: bbc12ae2f967ec04e8c3c39eeb92733b, type: 3}
      propertyPath: m_LocalRotation.y
      value: -0
      objectReference: {fileID: 0}
    - target: {fileID: 4962039562683002, guid: bbc12ae2f967ec04e8c3c39eeb92733b, type: 3}
      propertyPath: m_LocalRotation.z
      value: -0
      objectReference: {fileID: 0}
    - target: {fileID: 4962039562683002, guid: bbc12ae2f967ec04e8c3c39eeb92733b, type: 3}
      propertyPath: m_LocalEulerAnglesHint.x
      value: 0
      objectReference: {fileID: 0}
    - target: {fileID: 4962039562683002, guid: bbc12ae2f967ec04e8c3c39eeb92733b, type: 3}
      propertyPath: m_LocalEulerAnglesHint.y
      value: 0
      objectReference: {fileID: 0}
    - target: {fileID: 4962039562683002, guid: bbc12ae2f967ec04e8c3c39eeb92733b, type: 3}
      propertyPath: m_LocalEulerAnglesHint.z
      value: 0
      objectReference: {fileID: 0}
    m_RemovedComponents: []
  m_SourcePrefab: {fileID: 100100000, guid: bbc12ae2f967ec04e8c3c39eeb92733b, type: 3}
--- !u!4 &1384293583 stripped
Transform:
  m_CorrespondingSourceObject: {fileID: 4962039562683002, guid: bbc12ae2f967ec04e8c3c39eeb92733b, type: 3}
  m_PrefabInstance: {fileID: 1177614400}
  m_PrefabAsset: {fileID: 0}
--- !u!4 &1467120294 stripped
Transform:
  m_CorrespondingSourceObject: {fileID: 4903173184963024, guid: af1ac26269830d347859c2c45ef72494, type: 3}
  m_PrefabInstance: {fileID: 544364933}
  m_PrefabAsset: {fileID: 0}
--- !u!1001 &1601852533
PrefabInstance:
  m_ObjectHideFlags: 0
  serializedVersion: 2
  m_Modification:
    m_TransformParent: {fileID: 0}
    m_Modifications:
    - target: {fileID: 1517606136512507963, guid: 93eb0a4a7a3bdb143a7d06f7ad7af889, type: 3}
      propertyPath: m_Name
      value: Interface
      objectReference: {fileID: 0}
    - target: {fileID: 1517606136512507967, guid: 93eb0a4a7a3bdb143a7d06f7ad7af889, type: 3}
      propertyPath: m_Pivot.x
      value: 0
      objectReference: {fileID: 0}
    - target: {fileID: 1517606136512507967, guid: 93eb0a4a7a3bdb143a7d06f7ad7af889, type: 3}
      propertyPath: m_Pivot.y
      value: 0
      objectReference: {fileID: 0}
    - target: {fileID: 1517606136512507967, guid: 93eb0a4a7a3bdb143a7d06f7ad7af889, type: 3}
      propertyPath: m_RootOrder
      value: 6
      objectReference: {fileID: 0}
    - target: {fileID: 1517606136512507967, guid: 93eb0a4a7a3bdb143a7d06f7ad7af889, type: 3}
      propertyPath: m_AnchorMax.x
      value: 0
      objectReference: {fileID: 0}
    - target: {fileID: 1517606136512507967, guid: 93eb0a4a7a3bdb143a7d06f7ad7af889, type: 3}
      propertyPath: m_AnchorMax.y
      value: 0
      objectReference: {fileID: 0}
    - target: {fileID: 1517606136512507967, guid: 93eb0a4a7a3bdb143a7d06f7ad7af889, type: 3}
      propertyPath: m_AnchorMin.x
      value: 0
      objectReference: {fileID: 0}
    - target: {fileID: 1517606136512507967, guid: 93eb0a4a7a3bdb143a7d06f7ad7af889, type: 3}
      propertyPath: m_AnchorMin.y
      value: 0
      objectReference: {fileID: 0}
    - target: {fileID: 1517606136512507967, guid: 93eb0a4a7a3bdb143a7d06f7ad7af889, type: 3}
      propertyPath: m_SizeDelta.x
      value: 0
      objectReference: {fileID: 0}
    - target: {fileID: 1517606136512507967, guid: 93eb0a4a7a3bdb143a7d06f7ad7af889, type: 3}
      propertyPath: m_SizeDelta.y
      value: 0
      objectReference: {fileID: 0}
    - target: {fileID: 1517606136512507967, guid: 93eb0a4a7a3bdb143a7d06f7ad7af889, type: 3}
      propertyPath: m_LocalPosition.x
      value: 0
      objectReference: {fileID: 0}
    - target: {fileID: 1517606136512507967, guid: 93eb0a4a7a3bdb143a7d06f7ad7af889, type: 3}
      propertyPath: m_LocalPosition.y
      value: 0
      objectReference: {fileID: 0}
    - target: {fileID: 1517606136512507967, guid: 93eb0a4a7a3bdb143a7d06f7ad7af889, type: 3}
      propertyPath: m_LocalPosition.z
      value: 0
      objectReference: {fileID: 0}
    - target: {fileID: 1517606136512507967, guid: 93eb0a4a7a3bdb143a7d06f7ad7af889, type: 3}
      propertyPath: m_LocalRotation.w
      value: 1
      objectReference: {fileID: 0}
    - target: {fileID: 1517606136512507967, guid: 93eb0a4a7a3bdb143a7d06f7ad7af889, type: 3}
      propertyPath: m_LocalRotation.x
      value: 0
      objectReference: {fileID: 0}
    - target: {fileID: 1517606136512507967, guid: 93eb0a4a7a3bdb143a7d06f7ad7af889, type: 3}
      propertyPath: m_LocalRotation.y
      value: 0
      objectReference: {fileID: 0}
    - target: {fileID: 1517606136512507967, guid: 93eb0a4a7a3bdb143a7d06f7ad7af889, type: 3}
      propertyPath: m_LocalRotation.z
      value: 0
      objectReference: {fileID: 0}
    - target: {fileID: 1517606136512507967, guid: 93eb0a4a7a3bdb143a7d06f7ad7af889, type: 3}
      propertyPath: m_AnchoredPosition.x
      value: 0
      objectReference: {fileID: 0}
    - target: {fileID: 1517606136512507967, guid: 93eb0a4a7a3bdb143a7d06f7ad7af889, type: 3}
      propertyPath: m_AnchoredPosition.y
      value: 0
      objectReference: {fileID: 0}
    - target: {fileID: 1517606136512507967, guid: 93eb0a4a7a3bdb143a7d06f7ad7af889, type: 3}
      propertyPath: m_LocalEulerAnglesHint.x
      value: 0
      objectReference: {fileID: 0}
    - target: {fileID: 1517606136512507967, guid: 93eb0a4a7a3bdb143a7d06f7ad7af889, type: 3}
      propertyPath: m_LocalEulerAnglesHint.y
      value: 0
      objectReference: {fileID: 0}
    - target: {fileID: 1517606136512507967, guid: 93eb0a4a7a3bdb143a7d06f7ad7af889, type: 3}
      propertyPath: m_LocalEulerAnglesHint.z
      value: 0
      objectReference: {fileID: 0}
    m_RemovedComponents: []
  m_SourcePrefab: {fileID: 100100000, guid: 93eb0a4a7a3bdb143a7d06f7ad7af889, type: 3}
--- !u!1001 &1712646858
PrefabInstance:
  m_ObjectHideFlags: 0
  serializedVersion: 2
  m_Modification:
    m_TransformParent: {fileID: 1171091323}
    m_Modifications:
    - target: {fileID: 1016621507197270, guid: e484c7ad7b1274b4c847940d3eb54d14, type: 3}
      propertyPath: m_Name
      value: Ground
      objectReference: {fileID: 0}
    - target: {fileID: 1016621507197270, guid: e484c7ad7b1274b4c847940d3eb54d14, type: 3}
      propertyPath: m_Layer
      value: 6
      objectReference: {fileID: 0}
    - target: {fileID: 1016621507197270, guid: e484c7ad7b1274b4c847940d3eb54d14, type: 3}
      propertyPath: m_NavMeshLayer
      value: 0
      objectReference: {fileID: 0}
    - target: {fileID: 1016621507197270, guid: e484c7ad7b1274b4c847940d3eb54d14, type: 3}
      propertyPath: m_StaticEditorFlags
      value: 8
      objectReference: {fileID: 0}
    - target: {fileID: 4063223197671162, guid: e484c7ad7b1274b4c847940d3eb54d14, type: 3}
      propertyPath: m_LocalPosition.x
      value: 0
      objectReference: {fileID: 0}
    - target: {fileID: 4063223197671162, guid: e484c7ad7b1274b4c847940d3eb54d14, type: 3}
      propertyPath: m_LocalPosition.y
      value: 0
      objectReference: {fileID: 0}
    - target: {fileID: 4063223197671162, guid: e484c7ad7b1274b4c847940d3eb54d14, type: 3}
      propertyPath: m_LocalPosition.z
      value: 0
      objectReference: {fileID: 0}
    - target: {fileID: 4063223197671162, guid: e484c7ad7b1274b4c847940d3eb54d14, type: 3}
      propertyPath: m_LocalRotation.w
      value: 1
      objectReference: {fileID: 0}
    - target: {fileID: 4063223197671162, guid: e484c7ad7b1274b4c847940d3eb54d14, type: 3}
      propertyPath: m_LocalRotation.x
      value: 0
      objectReference: {fileID: 0}
    - target: {fileID: 4063223197671162, guid: e484c7ad7b1274b4c847940d3eb54d14, type: 3}
      propertyPath: m_LocalRotation.y
      value: -0
      objectReference: {fileID: 0}
    - target: {fileID: 4063223197671162, guid: e484c7ad7b1274b4c847940d3eb54d14, type: 3}
      propertyPath: m_LocalRotation.z
      value: -0
      objectReference: {fileID: 0}
    - target: {fileID: 64334384402591996, guid: e484c7ad7b1274b4c847940d3eb54d14, type: 3}
      propertyPath: m_CookingOptions
      value: -1
      objectReference: {fileID: 0}
    m_RemovedComponents: []
  m_SourcePrefab: {fileID: 100100000, guid: e484c7ad7b1274b4c847940d3eb54d14, type: 3}
--- !u!4 &1712646859 stripped
Transform:
  m_CorrespondingSourceObject: {fileID: 4063223197671162, guid: e484c7ad7b1274b4c847940d3eb54d14, type: 3}
  m_PrefabInstance: {fileID: 1712646858}
  m_PrefabAsset: {fileID: 0}
--- !u!4 &1717135238 stripped
Transform:
  m_CorrespondingSourceObject: {fileID: 4230341433385666, guid: 09135c03210603f42b4207ff66b56781, type: 3}
  m_PrefabInstance: {fileID: 574787367}
  m_PrefabAsset: {fileID: 0}
--- !u!4 &1736542205 stripped
Transform:
  m_CorrespondingSourceObject: {fileID: 4903173184963024, guid: af1ac26269830d347859c2c45ef72494, type: 3}
  m_PrefabInstance: {fileID: 598253706}
  m_PrefabAsset: {fileID: 0}
--- !u!1001 &1942649730
PrefabInstance:
  m_ObjectHideFlags: 0
  serializedVersion: 2
  m_Modification:
    m_TransformParent: {fileID: 1171091323}
    m_Modifications:
    - target: {fileID: 1811686274572396, guid: af1ac26269830d347859c2c45ef72494, type: 3}
      propertyPath: m_Name
      value: Start
      objectReference: {fileID: 0}
    - target: {fileID: 1811686274572396, guid: af1ac26269830d347859c2c45ef72494, type: 3}
      propertyPath: m_Layer
      value: 6
      objectReference: {fileID: 0}
    - target: {fileID: 1811686274572396, guid: af1ac26269830d347859c2c45ef72494, type: 3}
      propertyPath: m_StaticEditorFlags
      value: 8
      objectReference: {fileID: 0}
    - target: {fileID: 4903173184963024, guid: af1ac26269830d347859c2c45ef72494, type: 3}
      propertyPath: m_RootOrder
      value: 1
      objectReference: {fileID: 0}
    - target: {fileID: 4903173184963024, guid: af1ac26269830d347859c2c45ef72494, type: 3}
      propertyPath: m_LocalPosition.x
      value: -0
      objectReference: {fileID: 0}
    - target: {fileID: 4903173184963024, guid: af1ac26269830d347859c2c45ef72494, type: 3}
      propertyPath: m_LocalPosition.y
      value: 0.4
      objectReference: {fileID: 0}
    - target: {fileID: 4903173184963024, guid: af1ac26269830d347859c2c45ef72494, type: 3}
      propertyPath: m_LocalPosition.z
      value: 0
      objectReference: {fileID: 0}
    - target: {fileID: 4903173184963024, guid: af1ac26269830d347859c2c45ef72494, type: 3}
      propertyPath: m_LocalRotation.w
      value: 1
      objectReference: {fileID: 0}
    - target: {fileID: 4903173184963024, guid: af1ac26269830d347859c2c45ef72494, type: 3}
      propertyPath: m_LocalRotation.x
      value: 0
      objectReference: {fileID: 0}
    - target: {fileID: 4903173184963024, guid: af1ac26269830d347859c2c45ef72494, type: 3}
      propertyPath: m_LocalRotation.y
      value: -0
      objectReference: {fileID: 0}
    - target: {fileID: 4903173184963024, guid: af1ac26269830d347859c2c45ef72494, type: 3}
      propertyPath: m_LocalRotation.z
      value: -0
      objectReference: {fileID: 0}
    - target: {fileID: 4903173184963024, guid: af1ac26269830d347859c2c45ef72494, type: 3}
      propertyPath: m_LocalEulerAnglesHint.x
      value: 0
      objectReference: {fileID: 0}
    - target: {fileID: 4903173184963024, guid: af1ac26269830d347859c2c45ef72494, type: 3}
      propertyPath: m_LocalEulerAnglesHint.y
      value: 0
      objectReference: {fileID: 0}
    - target: {fileID: 4903173184963024, guid: af1ac26269830d347859c2c45ef72494, type: 3}
      propertyPath: m_LocalEulerAnglesHint.z
      value: 0
      objectReference: {fileID: 0}
    m_RemovedComponents: []
  m_SourcePrefab: {fileID: 100100000, guid: af1ac26269830d347859c2c45ef72494, type: 3}
--- !u!4 &1942649731 stripped
Transform:
  m_CorrespondingSourceObject: {fileID: 4903173184963024, guid: af1ac26269830d347859c2c45ef72494, type: 3}
  m_PrefabInstance: {fileID: 1942649730}
  m_PrefabAsset: {fileID: 0}
--- !u!1 &1972532564
GameObject:
  m_ObjectHideFlags: 0
  m_CorrespondingSourceObject: {fileID: 0}
  m_PrefabInstance: {fileID: 0}
  m_PrefabAsset: {fileID: 0}
  serializedVersion: 6
  m_Component:
  - component: {fileID: 1972532567}
  - component: {fileID: 1972532566}
  - component: {fileID: 1972532565}
  m_Layer: 0
  m_Name: EventSystem
  m_TagString: Untagged
  m_Icon: {fileID: 0}
  m_NavMeshLayer: 0
  m_StaticEditorFlags: 0
  m_IsActive: 1
--- !u!114 &1972532565
MonoBehaviour:
  m_ObjectHideFlags: 0
  m_CorrespondingSourceObject: {fileID: 0}
  m_PrefabInstance: {fileID: 0}
  m_PrefabAsset: {fileID: 0}
  m_GameObject: {fileID: 1972532564}
  m_Enabled: 1
  m_EditorHideFlags: 0
  m_Script: {fileID: 11500000, guid: 4f231c4fb786f3946a6b90b886c48677, type: 3}
  m_Name: 
  m_EditorClassIdentifier: 
  m_HorizontalAxis: Horizontal
  m_VerticalAxis: Vertical
  m_SubmitButton: Submit
  m_CancelButton: Cancel
  m_InputActionsPerSecond: 10
  m_RepeatDelay: 0.5
  m_ForceModuleActive: 0
--- !u!114 &1972532566
MonoBehaviour:
  m_ObjectHideFlags: 0
  m_CorrespondingSourceObject: {fileID: 0}
  m_PrefabInstance: {fileID: 0}
  m_PrefabAsset: {fileID: 0}
  m_GameObject: {fileID: 1972532564}
  m_Enabled: 1
  m_EditorHideFlags: 0
  m_Script: {fileID: 11500000, guid: 76c392e42b5098c458856cdf6ecaaaa1, type: 3}
  m_Name: 
  m_EditorClassIdentifier: 
  m_FirstSelected: {fileID: 0}
  m_sendNavigationEvents: 1
  m_DragThreshold: 10
--- !u!4 &1972532567
Transform:
  m_ObjectHideFlags: 0
  m_CorrespondingSourceObject: {fileID: 0}
  m_PrefabInstance: {fileID: 0}
  m_PrefabAsset: {fileID: 0}
  m_GameObject: {fileID: 1972532564}
  m_LocalRotation: {x: 0, y: 0, z: 0, w: 1}
  m_LocalPosition: {x: 0, y: 0, z: 0}
  m_LocalScale: {x: 1, y: 1, z: 1}
  m_Children: []
  m_Father: {fileID: 0}
  m_RootOrder: 5
  m_LocalEulerAnglesHint: {x: 0, y: 0, z: 0}
--- !u!1001 &2033128530
PrefabInstance:
  m_ObjectHideFlags: 0
  serializedVersion: 2
  m_Modification:
    m_TransformParent: {fileID: 1171091323}
    m_Modifications:
    - target: {fileID: 1811686274572396, guid: af1ac26269830d347859c2c45ef72494, type: 3}
      propertyPath: m_Name
      value: YellowMarker
      objectReference: {fileID: 0}
    - target: {fileID: 1811686274572396, guid: af1ac26269830d347859c2c45ef72494, type: 3}
      propertyPath: m_Layer
      value: 8
      objectReference: {fileID: 0}
    - target: {fileID: 1811686274572396, guid: af1ac26269830d347859c2c45ef72494, type: 3}
      propertyPath: m_TagString
      value: YMarker
      objectReference: {fileID: 0}
    - target: {fileID: 1811686274572396, guid: af1ac26269830d347859c2c45ef72494, type: 3}
      propertyPath: m_StaticEditorFlags
      value: 8
      objectReference: {fileID: 0}
    - target: {fileID: 4903173184963024, guid: af1ac26269830d347859c2c45ef72494, type: 3}
      propertyPath: m_RootOrder
      value: 3
      objectReference: {fileID: 0}
    - target: {fileID: 4903173184963024, guid: af1ac26269830d347859c2c45ef72494, type: 3}
      propertyPath: m_LocalPosition.x
      value: 25.690655
      objectReference: {fileID: 0}
    - target: {fileID: 4903173184963024, guid: af1ac26269830d347859c2c45ef72494, type: 3}
      propertyPath: m_LocalPosition.y
      value: 0.38211966
      objectReference: {fileID: 0}
    - target: {fileID: 4903173184963024, guid: af1ac26269830d347859c2c45ef72494, type: 3}
      propertyPath: m_LocalPosition.z
      value: 26.892279
      objectReference: {fileID: 0}
    - target: {fileID: 4903173184963024, guid: af1ac26269830d347859c2c45ef72494, type: 3}
      propertyPath: m_LocalRotation.w
      value: 1
      objectReference: {fileID: 0}
    - target: {fileID: 4903173184963024, guid: af1ac26269830d347859c2c45ef72494, type: 3}
      propertyPath: m_LocalRotation.x
      value: -0
      objectReference: {fileID: 0}
    - target: {fileID: 4903173184963024, guid: af1ac26269830d347859c2c45ef72494, type: 3}
      propertyPath: m_LocalRotation.y
      value: -0
      objectReference: {fileID: 0}
    - target: {fileID: 4903173184963024, guid: af1ac26269830d347859c2c45ef72494, type: 3}
      propertyPath: m_LocalRotation.z
      value: -0
      objectReference: {fileID: 0}
    - target: {fileID: 4903173184963024, guid: af1ac26269830d347859c2c45ef72494, type: 3}
      propertyPath: m_LocalEulerAnglesHint.x
      value: 0
      objectReference: {fileID: 0}
    - target: {fileID: 4903173184963024, guid: af1ac26269830d347859c2c45ef72494, type: 3}
      propertyPath: m_LocalEulerAnglesHint.y
      value: 0
      objectReference: {fileID: 0}
    - target: {fileID: 4903173184963024, guid: af1ac26269830d347859c2c45ef72494, type: 3}
      propertyPath: m_LocalEulerAnglesHint.z
      value: 0
      objectReference: {fileID: 0}
    - target: {fileID: 23573647223393292, guid: af1ac26269830d347859c2c45ef72494, type: 3}
      propertyPath: m_Materials.Array.data[0]
      value: 
      objectReference: {fileID: 2100000, guid: f00b9c1c6b746ca428db04748928b57e, type: 2}
    m_RemovedComponents: []
  m_SourcePrefab: {fileID: 100100000, guid: af1ac26269830d347859c2c45ef72494, type: 3}
